//lista de atomos, con carga y masa del isotopo con mayor abundancia
X     0   0.0000000000
H     1   1.0078250321
He    2   4.0026032497
Li    3   7.016004
Be    4   9.012182
B     5  11.009305
C     6  12.000000
N     7  14.003074
O     8  15.994915
F     9  18.998403
Ne   10  19.992440
Na   11  22.98976967
Mg   12  23.985042
Al   13  26.981538
Si   14  27.9769265327
P    15  30.973762
S    16  31.972071
Cl   17  34.968853
Ar   18  39.962383
K    19  38.963707
Ca   20  39.962591
Sc   21  44.955910
Ti   22  47.947947
V    23  50.943964
Cr   24  51.940512
Mn   25  54.938050
Fe   26  55.934942
Co   27  58.933200
Ni   28  57.935348
Cu   29  62.929601
Zn   30  63.929147
Ga   31  68.925581
Ge   32  73.921178
As   33  74.921596
Se   34  79.916522
Br   35  78.9183376
Kr   36  83.911507
Rb   37  84.9117893
Sr   38  87.9056143
Y    39  88.9058479
Zr   40  89.9047037
Nb   41  92.9063775
Mo   42  97.9054078
Tc   43  96.906365
Ru   44 101.9043495
Rh   45 102.905504
Pd   46 105.903483
Ag   47 106.905093
Cd   48 113.9033581
In   49 114.903878
Sn   50	119.9021966
Sb   51	120.9038180
Te   52 129.9062228
I    53 126.904468
Xe   54 131.9041545
Cs   55 132.905447
Ba   56 137.905241
La   57 138.906348
Ce   58 139.905434
Pr   59	140.907648
Nd   60	141.907719
Pm   61	144.912744
Sm   62 151.919728
Eu   63 152.921226
Gd   64 157.924101
Tb   65 158.925343
Dy   66 163.929171
Ho   67	164.930319
Er   68 165.930290
Tm   69	168.934211
Yb   70 173.9388581
Lu   71 174.9407679
Hf   72 179.9465488
Ta   73 180.947996
W    74 183.9509326
Re   75 186.9557508
Os   76 191.961479
Ir   77 192.962924
Pt   78 194.964774
Au   79 196.966552
Hg   80 201.970626
Tl   81 204.974412
Pb   82 207.976636
Bi   83 208.980383
Po   84 208.982416
At   85 209.987131
Rn   86 210.990585
Fr   87 223.0197307
Ra   88 223.018497
Ac   89 227.0277470
Th   90 232.0380504
Pa   91 231.0358789
U    92 238.0507826
Np   93 237.0481673
Pu   94 238.0495534
Am   95 241.0568229
Cm   96 243.0613822
Bk   97 247.070299
Cf   98 249.074847
Es   99 252.082970
Fm  100 257.095099
Md  101	256.094050
//258.098425
No  102	259.10102
Lr  103	262.10969
Rf  104	261.10875
Db  105	262.11415
Sg  106	266.12193
Bh  107	264.12473
Hs  108	277
Mt  109	268.13882
Uun 110	281
Uuu 111 272.15348
Uub 112 285
Uuq 114	289
Uuh 116	292 		  

//otros isotopos importantes: no hay 
D     1   2.0141017780
T     1   3.0160492675
He3   2   3.0160293097
Li6   3   6.0151223
C13   6  13.0033548378
C14   6  14.003241988
N15   7  15.0001088984
O17   8  16.99913150
O18   8  17.9991604
Cl37 17  36.96590260
Br81 35  80.916291

//Au atom w/ PP (ECP)
*Au  1 196.966552 


//Au atom Mcp
AuMcp  1 196.966552 
AuEcpMcp  1 196.966552 
AuMcp2 19 196.966552 
AuEcp  19 196.966552 
AgMcp  1 106.905093
Mcp 19 196.966552


// for water calculation
H2    1  1.00000
H3    1  1.00000
O2Ecp 6 16.00000 // for ECP
O3Ecp 6 16.00000 // for ECP


// for endofullerene calculation
ScEcp 11 44.955910


//dummies de carga: no aportan funciones base; 
//hay que sumar la carga correspondiente en el archivo de input
Xp    1   0.
Xn   -1   0.
