//  6 TZ solvent waters
// 25 DZ solvent waters
#BASIS  = h2o_xray/basis.bs
#METHOD = RSP
#XCFUN  = CAMB3LYP cam_beta=0.81

//#GDO = 24

#SCF:GUESS  = FIT
#FMLOAD = h2o_xray/guess.bs

#RSP:MODE  = CPP
#RSP:GAMMA = 0.0045566
#RSP:FREQS = 19.0361 : 19.28361 100 
#RSP:SOLVER:SVD = 1.e-3
#RSP:SOLVER:PRECISION = 1.e-4
#RSP:SOLVER:MAXSD = 4096

//#GRID:LEBMIN = 86
//#GRID:LEBMAX = 350


O   0.000000   0.000000   0.000000 // basis=iglo-iii + basis=diffuse-19

O3Ecp   2.204600   1.563500  -1.082900 // basis=tz ECP=ecp-sdd-DZ
O3Ecp   1.098100  -1.330400   2.478200
O3Ecp   0.879500  -2.211400  -1.955500
O3Ecp  -0.583900   2.292600  -2.079300
O3Ecp  -2.172700   2.319000   1.458500
O3Ecp  -0.591900  -3.277000   1.431600

O2Ecp   2.765910   1.718500   1.757800 // Basis=ecp-sdd-DZ ECP=ecp-sdd-DZ
O2Ecp  -2.578800   0.332400  -2.784800
O2Ecp  -2.149800   0.667900   3.596530
O2Ecp  -2.842300  -3.145800  -0.185200
O2Ecp   1.165600   1.279500   3.934680
O2Ecp   0.311600   3.712700   2.247200
O2Ecp  -1.995900  -2.127300   3.569150
O2Ecp   3.418070  -2.767300  -1.410600
O2Ecp   4.396060  -0.033100  -1.815700
O2Ecp  -2.407300  -2.676900  -3.144900
O2Ecp   2.322300  -1.470900  -4.288900
O2Ecp   3.827500  -3.130300   1.387300
O2Ecp   4.871300  -0.538700   1.718300
O2Ecp   3.473100  -1.463600   3.702600
O2Ecp  -0.107800  -4.049920  -3.437600
O2Ecp  -0.775600   5.115100  -1.506400
O2Ecp  -0.392300  -0.894800  -5.340900
O2Ecp   1.675600   2.579000  -4.582700
O2Ecp   3.072630   3.796600  -2.719500
O2Ecp  -4.610900  -1.760400   2.641900
O2Ecp  -1.418100   1.702900  -5.330400
O2Ecp  -3.718600   2.404200  -3.918700
O2Ecp  -3.958500   4.384700   1.126400
O2Ecp   3.912090   3.959500   2.603600
O2Ecp  -0.496300  -1.629900   6.050800


H3   0.505500  -0.317500   0.757200 // basis=tz
H3  -0.916400   0.126900   0.409600
H3   1.303400   1.535000  -1.194600
H3   2.129000   1.754400  -0.106500
H3   0.800300  -2.059700   2.046700
H3   1.894900  -1.636100   2.967200
H3   0.632000  -1.554800  -1.165600
H3   1.804700  -2.455900  -1.643500
H3  -0.884100   3.148800  -1.808400
H3  -0.037600   2.318600  -2.804000
H3  -1.990400   1.545400   1.916200
H3  -1.591500   2.264200   0.735800
H3  -0.340900  -4.183550   1.546400
H3  -1.301100  -3.349600   0.754900

H2   2.999180   2.751700   1.849700 // Basis=dz
H2   2.397100   1.670200   2.609100
H2  -1.785700   0.613800  -2.163800
H2  -2.342700  -0.600300  -3.049200
H2  -2.312900  -0.254100   3.638970
H2  -3.059600   0.782100   3.835260
H2  -2.980900  -2.880300  -1.108300
H2  -3.634000  -3.306400   0.233800
H2   0.674000   0.610100   3.497330
H2   0.440300   1.605500   4.610060
H2  -0.525100   3.424700   2.323700
H2   0.887100   2.885600   2.071600
H2  -1.357300  -1.616900   4.094650
H2  -1.364800  -2.480700   2.786700
H2   3.866500  -3.013500  -0.726700
H2   3.718686  -3.388700  -2.083500
H2   3.744549   0.732600  -1.631400
H2   3.824180  -0.866900  -1.871300
H2  -1.540800  -3.377400  -3.206700
H2  -2.913400  -3.417200  -3.645000
H2   1.626600  -1.390900  -4.905600
H2   1.929500  -1.687100  -3.395200
H2   4.742100  -3.549850   1.554000
H2   3.839940  -2.153800   1.814600
H2   5.417200  -0.605200   0.900500
H2   4.059960  -0.062600   1.607000
H2   3.941680  -0.550300   3.875130
H2   3.051410  -1.476000   4.552840
H2   0.090400  -4.990850  -3.344500
H2   0.533300  -3.520750  -2.854400
H2   0.188600   5.604500  -1.535700
H2  -1.447800   5.712600  -1.112200
H2  -1.099800  -1.415300  -5.247900
H2   0.053800  -1.301000  -6.248100
H2   2.391100   3.015800  -4.190100
H2   2.222900   1.887000  -5.196000
H2   2.946180   4.571300  -2.242100
H2   2.493400   3.216400  -2.262200
H2  -3.773300  -1.352200   2.615700
H2  -4.513700  -2.602500   2.366600
H2  -2.159100   1.775200  -4.786600
H2  -0.879000   0.922100  -5.285700
H2  -4.120900   3.017400  -4.501500
H2  -4.051100   1.422600  -3.904500
H2  -3.409200   3.594600   1.163500
H2  -4.382500   4.096600   0.477100
H2   3.720898   4.899800   2.184400
H2   4.870100   3.849000   2.422500
H2  -0.696000  -2.151000   6.868400
H2   0.534400  -1.750600   6.207100

