//acetone
#BASIS = basis/6-31G.bs
#CHARGE = 0
#METHOD = RHF

C
C  1  Rcc
C  2  Rcc  1  120

O  2  Rco  1  120   3 180

H  1  Rch  2  Tang  3   0
H  1  Rch  2  Tang  5 120
H  1  Rch  2  Tang  5 240

H  3  Rch  2  Tang  1   0
H  3  Rch  2  Tang  8 120
H  3  Rch  2  Tang  8 240


Rch = 1.10
Rcc = 1.54
Rco = 1.40
Tang = 109.47122
