#BASIS   = basis/stuttgart_ano_min.bs
#CHARGE  = 0

#METHOD = RKS
#XCFUN  = LDA
#GRID:LEBMAX = 2030 // the grid extends significantly

AuEcpMcp    -3.0590000000        0.0000000000       -1.4420735696
AuEcpMcp     1.0200000000        2.8842886271        1.4422148577
AuEcpMcp    -1.0200000000        1.4417907268       -0.0002829093
AuEcpMcp     1.0200000000        0.0000000000       -1.4420735696
AuEcpMcp     3.0590000000        1.4417907268       -0.0002829093
AuEcpMcp    -1.0200000000       -1.4417907269       -0.0002827761
AuEcpMcp    -1.0200000000        1.4424979668        2.8840056511
AuEcpMcp    -1.0200000000        1.4417905937       -2.8838643630
AuEcpMcp     3.0590000000        4.3260792873        0.0004240643
AuEcpMcp    -3.0590000000        0.0000000000        1.4415078841
AuEcpMcp     1.0200000000        0.0000000000        1.4415078841
AuEcpMcp     1.0200000000        2.8835813871       -1.4420737027
AuEcpMcp    -1.0200000000       -1.4424977005        2.8840057844
AuEcpMcp     1.0200000000       -2.8842884939        1.4422151241
AuEcpMcp    -3.0590000000        0.0000000000        4.3265035514
AuEcpMcp     3.0590000000       -1.4417907269       -0.0002827761
AuEcpMcp     1.0200000000       -2.8835815203       -1.4420734364
AuEcpMcp    -1.0200000000       -1.4417908600       -2.8838642298
AuEcpMcp     3.0590000000       -4.3260792873        0.0004244638
AuEcpMcp    -3.0590000000        0.0000000000       -4.3256550232

