//butano alternado
#BASIS = bs\6-31G.bs
#CHARGE = 1
#MULTIPLICITY = 2
#METHOD = UHF

#SCALING = ON
#STORE = YES

#MINOVER = 1e-15
//#LOAD = buta.dm
//#SAVE = buta.dm

C
C  1  Rcc
C  2  Rcc  1  Tang
C  3  Rcc  2  Tang 1 180

H  1  Rch  2  Tang 3 0
H  1  Rch  2  Tang 5 120
H  1  Rch  2  Tang 5 240

H  2  Rch  3  Tang 4 60
H  2  Rch  3  Tang 4 300

H  3  Rch  2  Tang 1 60
H  3  Rch  2  Tang 1 300

H  4  Rch  3  Tang  2   0
H  4  Rch  3  Tang 12 120
H  4  Rch  3  Tang 12 240


Rch = 1.10
Rcc = 1.54
Tang = 109.47122
