//energy: -157.3441892827158313
//time/SCF cycle <54s (1CPU)
#BASIS   = basis/roos2z.bs
//#BASIS   = basis/6-31G.bs
#CHARGE  = 0
#METHOD  = RHF
#THREADS = 16
//#THREADS = 4
//#CS = 10000
//#GDO = 10000
#CS = 10
#GDO = 15
#GPU     = OFF

#DMSAVE = buta_r2z.dm

C
C  1  Rcc
C  2  Rcc  1  Tang
C  3  Rcc  2  Tang 1 180

H  1  Rch  2  Tang 3 0
H  1  Rch  2  Tang 5 120
H  1  Rch  2  Tang 5 240

H  2  Rch  3  Tang 4 60
H  2  Rch  3  Tang 4 300

H  3  Rch  2  Tang 1 60
H  3  Rch  2  Tang 1 300

H  4  Rch  3  Tang  2   0
H  4  Rch  3  Tang 12 120
H  4  Rch  3  Tang 12 240


Rch = 1.10
Rcc = 1.54
Tang = 109.47122
