//long-chain alkane C100H202
#BASIS   = basis/6-31G.bs
#CHARGE  = 0
#METHOD  = RHF
#CS      = 12
#GDO     = 18

C 
C  1  Rcc 
C  2  Rcc 1 Tang 
C  3 Rcc 2 Tang 1 Dang 
C  4 Rcc 3 Tang 2 Dang 
C  5 Rcc 4 Tang 3 Dang 
C  6 Rcc 5 Tang 4 Dang 
C  7 Rcc 6 Tang 5 Dang 
C  8 Rcc 7 Tang 6 Dang 
C  9 Rcc 8 Tang 7 Dang 
C  10 Rcc 9 Tang 8 Dang 
C  11 Rcc 10 Tang 9 Dang 
C  12 Rcc 11 Tang 10 Dang 
C  13 Rcc 12 Tang 11 Dang 
C  14 Rcc 13 Tang 12 Dang 
C  15 Rcc 14 Tang 13 Dang 
C  16 Rcc 15 Tang 14 Dang 
C  17 Rcc 16 Tang 15 Dang 
C  18 Rcc 17 Tang 16 Dang 
C  19 Rcc 18 Tang 17 Dang 
C  20 Rcc 19 Tang 18 Dang 
C  21 Rcc 20 Tang 19 Dang 
C  22 Rcc 21 Tang 20 Dang 
C  23 Rcc 22 Tang 21 Dang 
C  24 Rcc 23 Tang 22 Dang 
C  25 Rcc 24 Tang 23 Dang 
C  26 Rcc 25 Tang 24 Dang 
C  27 Rcc 26 Tang 25 Dang 
C  28 Rcc 27 Tang 26 Dang 
C  29 Rcc 28 Tang 27 Dang 
C  30 Rcc 29 Tang 28 Dang 
C  31 Rcc 30 Tang 29 Dang 
C  32 Rcc 31 Tang 30 Dang 
C  33 Rcc 32 Tang 31 Dang 
C  34 Rcc 33 Tang 32 Dang 
C  35 Rcc 34 Tang 33 Dang 
C  36 Rcc 35 Tang 34 Dang 
C  37 Rcc 36 Tang 35 Dang 
C  38 Rcc 37 Tang 36 Dang 
C  39 Rcc 38 Tang 37 Dang 
C  40 Rcc 39 Tang 38 Dang 
C  41 Rcc 40 Tang 39 Dang 
C  42 Rcc 41 Tang 40 Dang 
C  43 Rcc 42 Tang 41 Dang 
C  44 Rcc 43 Tang 42 Dang 
C  45 Rcc 44 Tang 43 Dang 
C  46 Rcc 45 Tang 44 Dang 
C  47 Rcc 46 Tang 45 Dang 
C  48 Rcc 47 Tang 46 Dang 
C  49 Rcc 48 Tang 47 Dang 
C  50 Rcc 49 Tang 48 Dang 
C  51 Rcc 50 Tang 49 Dang 
C  52 Rcc 51 Tang 50 Dang 
C  53 Rcc 52 Tang 51 Dang 
C  54 Rcc 53 Tang 52 Dang 
C  55 Rcc 54 Tang 53 Dang 
C  56 Rcc 55 Tang 54 Dang 
C  57 Rcc 56 Tang 55 Dang 
C  58 Rcc 57 Tang 56 Dang 
C  59 Rcc 58 Tang 57 Dang 
C  60 Rcc 59 Tang 58 Dang 
C  61 Rcc 60 Tang 59 Dang 
C  62 Rcc 61 Tang 60 Dang 
C  63 Rcc 62 Tang 61 Dang 
C  64 Rcc 63 Tang 62 Dang 
C  65 Rcc 64 Tang 63 Dang 
C  66 Rcc 65 Tang 64 Dang 
C  67 Rcc 66 Tang 65 Dang 
C  68 Rcc 67 Tang 66 Dang 
C  69 Rcc 68 Tang 67 Dang 
C  70 Rcc 69 Tang 68 Dang 
C  71 Rcc 70 Tang 69 Dang 
C  72 Rcc 71 Tang 70 Dang 
C  73 Rcc 72 Tang 71 Dang 
C  74 Rcc 73 Tang 72 Dang 
C  75 Rcc 74 Tang 73 Dang 
C  76 Rcc 75 Tang 74 Dang 
C  77 Rcc 76 Tang 75 Dang 
C  78 Rcc 77 Tang 76 Dang 
C  79 Rcc 78 Tang 77 Dang 
C  80 Rcc 79 Tang 78 Dang 
C  81 Rcc 80 Tang 79 Dang 
C  82 Rcc 81 Tang 80 Dang 
C  83 Rcc 82 Tang 81 Dang 
C  84 Rcc 83 Tang 82 Dang 
C  85 Rcc 84 Tang 83 Dang 
C  86 Rcc 85 Tang 84 Dang 
C  87 Rcc 86 Tang 85 Dang 
C  88 Rcc 87 Tang 86 Dang 
C  89 Rcc 88 Tang 87 Dang 
C  90 Rcc 89 Tang 88 Dang 
C  91 Rcc 90 Tang 89 Dang 
C  92 Rcc 91 Tang 90 Dang 
C  93 Rcc 92 Tang 91 Dang 
C  94 Rcc 93 Tang 92 Dang 
C  95 Rcc 94 Tang 93 Dang 
C  96 Rcc 95 Tang 94 Dang 
C  97 Rcc 96 Tang 95 Dang 
C  98 Rcc 97 Tang 96 Dang 
C  99 Rcc 98 Tang 97 Dang 
H   1  Rch  2  Tang 3 0
H   1  Rch  2  Tang 5 120
H   1  Rch  2  Tang 5 240
H   2  Rch  3  Tang 4 60
H   2  Rch  3  Tang 4 300
H  3 Rch 2 Tang 1 60 
H  3 Rch 2 Tang 1 300 
H  4 Rch 3 Tang 2 60 
H  4 Rch 3 Tang 2 300 
H  5 Rch 4 Tang 3 60 
H  5 Rch 4 Tang 3 300 
H  6 Rch 5 Tang 4 60 
H  6 Rch 5 Tang 4 300 
H  7 Rch 6 Tang 5 60 
H  7 Rch 6 Tang 5 300 
H  8 Rch 7 Tang 6 60 
H  8 Rch 7 Tang 6 300 
H  9 Rch 8 Tang 7 60 
H  9 Rch 8 Tang 7 300 
H  10 Rch 9 Tang 8 60 
H  10 Rch 9 Tang 8 300 
H  11 Rch 10 Tang 9 60 
H  11 Rch 10 Tang 9 300 
H  12 Rch 11 Tang 10 60 
H  12 Rch 11 Tang 10 300 
H  13 Rch 12 Tang 11 60 
H  13 Rch 12 Tang 11 300 
H  14 Rch 13 Tang 12 60 
H  14 Rch 13 Tang 12 300 
H  15 Rch 14 Tang 13 60 
H  15 Rch 14 Tang 13 300 
H  16 Rch 15 Tang 14 60 
H  16 Rch 15 Tang 14 300 
H  17 Rch 16 Tang 15 60 
H  17 Rch 16 Tang 15 300 
H  18 Rch 17 Tang 16 60 
H  18 Rch 17 Tang 16 300 
H  19 Rch 18 Tang 17 60 
H  19 Rch 18 Tang 17 300 
H  20 Rch 19 Tang 18 60 
H  20 Rch 19 Tang 18 300 
H  21 Rch 20 Tang 19 60 
H  21 Rch 20 Tang 19 300 
H  22 Rch 21 Tang 20 60 
H  22 Rch 21 Tang 20 300 
H  23 Rch 22 Tang 21 60 
H  23 Rch 22 Tang 21 300 
H  24 Rch 23 Tang 22 60 
H  24 Rch 23 Tang 22 300 
H  25 Rch 24 Tang 23 60 
H  25 Rch 24 Tang 23 300 
H  26 Rch 25 Tang 24 60 
H  26 Rch 25 Tang 24 300 
H  27 Rch 26 Tang 25 60 
H  27 Rch 26 Tang 25 300 
H  28 Rch 27 Tang 26 60 
H  28 Rch 27 Tang 26 300 
H  29 Rch 28 Tang 27 60 
H  29 Rch 28 Tang 27 300 
H  30 Rch 29 Tang 28 60 
H  30 Rch 29 Tang 28 300 
H  31 Rch 30 Tang 29 60 
H  31 Rch 30 Tang 29 300 
H  32 Rch 31 Tang 30 60 
H  32 Rch 31 Tang 30 300 
H  33 Rch 32 Tang 31 60 
H  33 Rch 32 Tang 31 300 
H  34 Rch 33 Tang 32 60 
H  34 Rch 33 Tang 32 300 
H  35 Rch 34 Tang 33 60 
H  35 Rch 34 Tang 33 300 
H  36 Rch 35 Tang 34 60 
H  36 Rch 35 Tang 34 300 
H  37 Rch 36 Tang 35 60 
H  37 Rch 36 Tang 35 300 
H  38 Rch 37 Tang 36 60 
H  38 Rch 37 Tang 36 300 
H  39 Rch 38 Tang 37 60 
H  39 Rch 38 Tang 37 300 
H  40 Rch 39 Tang 38 60 
H  40 Rch 39 Tang 38 300 
H  41 Rch 40 Tang 39 60 
H  41 Rch 40 Tang 39 300 
H  42 Rch 41 Tang 40 60 
H  42 Rch 41 Tang 40 300 
H  43 Rch 42 Tang 41 60 
H  43 Rch 42 Tang 41 300 
H  44 Rch 43 Tang 42 60 
H  44 Rch 43 Tang 42 300 
H  45 Rch 44 Tang 43 60 
H  45 Rch 44 Tang 43 300 
H  46 Rch 45 Tang 44 60 
H  46 Rch 45 Tang 44 300 
H  47 Rch 46 Tang 45 60 
H  47 Rch 46 Tang 45 300 
H  48 Rch 47 Tang 46 60 
H  48 Rch 47 Tang 46 300 
H  49 Rch 48 Tang 47 60 
H  49 Rch 48 Tang 47 300 
H  50 Rch 49 Tang 48 60 
H  50 Rch 49 Tang 48 300 
H  51 Rch 50 Tang 49 60 
H  51 Rch 50 Tang 49 300 
H  52 Rch 51 Tang 50 60 
H  52 Rch 51 Tang 50 300 
H  53 Rch 52 Tang 51 60 
H  53 Rch 52 Tang 51 300 
H  54 Rch 53 Tang 52 60 
H  54 Rch 53 Tang 52 300 
H  55 Rch 54 Tang 53 60 
H  55 Rch 54 Tang 53 300 
H  56 Rch 55 Tang 54 60 
H  56 Rch 55 Tang 54 300 
H  57 Rch 56 Tang 55 60 
H  57 Rch 56 Tang 55 300 
H  58 Rch 57 Tang 56 60 
H  58 Rch 57 Tang 56 300 
H  59 Rch 58 Tang 57 60 
H  59 Rch 58 Tang 57 300 
H  60 Rch 59 Tang 58 60 
H  60 Rch 59 Tang 58 300 
H  61 Rch 60 Tang 59 60 
H  61 Rch 60 Tang 59 300 
H  62 Rch 61 Tang 60 60 
H  62 Rch 61 Tang 60 300 
H  63 Rch 62 Tang 61 60 
H  63 Rch 62 Tang 61 300 
H  64 Rch 63 Tang 62 60 
H  64 Rch 63 Tang 62 300 
H  65 Rch 64 Tang 63 60 
H  65 Rch 64 Tang 63 300 
H  66 Rch 65 Tang 64 60 
H  66 Rch 65 Tang 64 300 
H  67 Rch 66 Tang 65 60 
H  67 Rch 66 Tang 65 300 
H  68 Rch 67 Tang 66 60 
H  68 Rch 67 Tang 66 300 
H  69 Rch 68 Tang 67 60 
H  69 Rch 68 Tang 67 300 
H  70 Rch 69 Tang 68 60 
H  70 Rch 69 Tang 68 300 
H  71 Rch 70 Tang 69 60 
H  71 Rch 70 Tang 69 300 
H  72 Rch 71 Tang 70 60 
H  72 Rch 71 Tang 70 300 
H  73 Rch 72 Tang 71 60 
H  73 Rch 72 Tang 71 300 
H  74 Rch 73 Tang 72 60 
H  74 Rch 73 Tang 72 300 
H  75 Rch 74 Tang 73 60 
H  75 Rch 74 Tang 73 300 
H  76 Rch 75 Tang 74 60 
H  76 Rch 75 Tang 74 300 
H  77 Rch 76 Tang 75 60 
H  77 Rch 76 Tang 75 300 
H  78 Rch 77 Tang 76 60 
H  78 Rch 77 Tang 76 300 
H  79 Rch 78 Tang 77 60 
H  79 Rch 78 Tang 77 300 
H  80 Rch 79 Tang 78 60 
H  80 Rch 79 Tang 78 300 
H  81 Rch 80 Tang 79 60 
H  81 Rch 80 Tang 79 300 
H  82 Rch 81 Tang 80 60 
H  82 Rch 81 Tang 80 300 
H  83 Rch 82 Tang 81 60 
H  83 Rch 82 Tang 81 300 
H  84 Rch 83 Tang 82 60 
H  84 Rch 83 Tang 82 300 
H  85 Rch 84 Tang 83 60 
H  85 Rch 84 Tang 83 300 
H  86 Rch 85 Tang 84 60 
H  86 Rch 85 Tang 84 300 
H  87 Rch 86 Tang 85 60 
H  87 Rch 86 Tang 85 300 
H  88 Rch 87 Tang 86 60 
H  88 Rch 87 Tang 86 300 
H  89 Rch 88 Tang 87 60 
H  89 Rch 88 Tang 87 300 
H  90 Rch 89 Tang 88 60 
H  90 Rch 89 Tang 88 300 
H  91 Rch 90 Tang 89 60 
H  91 Rch 90 Tang 89 300 
H  92 Rch 91 Tang 90 60 
H  92 Rch 91 Tang 90 300 
H  93 Rch 92 Tang 91 60 
H  93 Rch 92 Tang 91 300 
H  94 Rch 93 Tang 92 60 
H  94 Rch 93 Tang 92 300 
H  95 Rch 94 Tang 93 60 
H  95 Rch 94 Tang 93 300 
H  96 Rch 95 Tang 94 60 
H  96 Rch 95 Tang 94 300 
H  97 Rch 96 Tang 95 60 
H  97 Rch 96 Tang 95 300 
H  98 Rch 97 Tang 96 60 
H  98 Rch 97 Tang 96 300 
H  99 Rch 98 Tang 97 60 
H  99 Rch 98 Tang 97 300 
H  100  Rch  99  Tang 98   0 
H  100  Rch  99  Tang 98 120 
H  100  Rch  99  Tang 98 240 
Rch = 1.10 
Rcc = 1.54 
Tang = 109.47122 

Dang = 180

