//C20
#BASIS   = basis/sapporo-DZP.bs

C   3.146860  0.625490 -0.240140
C   2.078090  1.509820  0.009910
C   0.979390  0.711570  0.470370
C   0.979390 -0.711570  0.470370
C   2.078090 -1.509820  0.009910
C   3.146860 -0.625490 -0.240140
C  -0.374090 -1.151340  0.470370
C  -1.210590  0.000000  0.470370
C  -0.374090  1.151340  0.470370
C   1.567300  2.799550 -0.240140
C   0.377560  3.186120 -0.240140
C  -0.793760  2.442940  0.009910
C   1.567300 -2.799550 -0.240140
C   0.377560 -3.186120 -0.240140
C  -0.793760 -2.442940  0.009910
C   -2.178210 -2.355700 -0.240140
C  -2.913510 -1.343650 -0.240140
C  -2.568660 0.000000  0.009910
C  -2.913510 1.343650 -0.240140
C  -2.178210 2.355700 -0.240140

