#BASIS = basis/sapporo-DZP.bs
#CHARGE = 0
#METHOD = RHF
#GDO = 1000000000
#CS  = 1000000000
#THREADS = 1
//C12H12 (cyclopentadienyletropenyle)
 C      0.150790  -0.121560   0.000000
 C      0.650380  -0.885010   1.186570
 C      0.144590  -2.088510   1.507740
 C    -0.746670   -2.848770   0.679680
 C    -0.746670   -2.848770  -0.679680
 C      0.144590  -2.088510  -1.507740
 C      0.650380  -0.885010  -1.186570
 C      0.583710   1.346720   0.000000
 C      0.083030   2.137700   1.170160
 C    -0.580550    3.216660   0.730290
 C    -0.580550    3.216660  -0.730290
 C      0.083030   2.137700  -1.170160
 H    -0.946190   -0.165180   0.000000
 H      1.428250  -0.442280   1.803220
 H      0.449920  -2.547380   2.444340
 H    -1.365170   -3.591030   1.176390
 H    -1.365170   -3.591030  -1.176390
 H      0.449920  -2.547380  -2.444340
 H      1.428250  -0.442280  -1.803220
 H      1.686440   1.373690   0.000000
 H      0.246500   1.857870   2.201860
 H    -1.047660    3.973900   1.346850
 H    -1.047660    3.973900  -1.346850
 H      0.246500   1.857870  -2.201860








