#BASIS = basis/roos3zb.bs
#CHARGE = 0
#METHOD = RHF
#GDO = 1000000000
#CS  = 1000000000
#THREADS = 4
//2,3-dimethylbut-2-ene
  C     0.000000   0.000000 -0.674140
  C     0.000000   0.000000  0.674140
  C     1.250720  -0.024820 -1.529780
  C    -1.250720   0.024820 -1.529780
  C     1.250720   0.024820  1.529780
  C    -1.250720  -0.024820  1.529780
  H     2.170500  -0.199360 -0.972300
  H     1.356170   0.919000 -2.082120
  H     1.163750  -0.816370 -2.285680
  H    -2.170500   0.199360 -0.972300
  H    -1.163750   0.816370 -2.285680
  H    -1.356170  -0.919000 -2.082120
  H     2.170500   0.199360  0.972300
  H     1.356170  -0.919000  2.082120
  H     1.163750   0.816370  2.285680
  H    -2.170500  -0.199360  0.972300
  H    -1.163750  -0.816370  2.285680
  H    -1.356170   0.919000  2.082120



