//ethane in alternated conformation
//energy: -79.25480788591
//time/SCF cycle: ~1 min 27 s (w/o GC)
//time/SCF cycle: ~5 s (w GC)

#BASIS = basis/rooss2z.bs
#CHARGE = 0
#METHOD = RHF
#THREADS = 4
#CS = 10000
#GDO = 10000

C
C  1  Rcc

H  2  Rch  1  Tang
H  2  Rch  1  Tang 3 120
H  2  Rch  1  Tang 3 240

H  1  Rch  2  Tang 3   0
H  1  Rch  2  Tang 6 120
H  1  Rch  2  Tang 6 240

Tang = 109.47122
Rch = 1.10
Rcc = 1.54
