#BASIS = basis/6-31G.bs
//#BASIS = basis/6-31+Gx.bs
#METHOD = RHF
//agua....

#CHARGE = 0

//#MONOPOLES = 2
// MONOPOLE    9.95   0.00    0.00  -1.
// MONOPOLE   10.05   0.00    0.00   1.

//#DIPOLES = 1
// DIPOLE   10.00   0.00    0.00   0.1 0.0 0.0


//#DIPOLES = 1
// DIPOLE    -10.00   0.00    0.00   0.385 0.0 0.0


// O         10.00000    0.00000    0.00000
// H         10.63509    0.63509    0.63509
// H         10.63509   -0.63509   -0.63509

 O          0.00000    0.00000    0.00000
 H          0.63509    0.63509    0.63509
 H          0.63509   -0.63509   -0.63509



// regular
//  -75.9520881818

// -151.9044675845

//  -75.9523013311 +10


