#BASIS = basis/sapporo-DZP.bs
#CHARGE = 0
#METHOD = RHF
#GDO = 15
#CS  = 10
#THREADS = 4
//heptahexane
  C    0.000000  0.000000  3.857520
  C    0.000000  0.000000  2.547120
  C    0.000000  0.000000  1.276940
  C    0.000000  0.000000  0.000000
  C    0.000000  0.000000 -1.276940
  C    0.000000  0.000000 -2.547120
  C    0.000000  0.000000 -3.857520
  H   -0.655060  0.655060  4.422220
  H    0.655060 -0.655060  4.422220
  H   -0.655060 -0.655060 -4.422220
  H    0.655060  0.655060 -4.422220


