#BASIS   = basis/6-31G.bs
#CHARGE  = 0
#METHOD  = RHF

//esqueleto carbonado
C
C 1 rCC
C 2 rCC 1 120
C 3 rCC 2 120 1 0
C 4 rCC 3 120 2 0
C 5 rCC 4 120 3 0

C 5 rCC 6 108 1 180
C 7 rCC 5 108 6 0
N 6 rCN 5 108 4 180

//hidrogenos
H 1 rCH 2 120 3 180
H 2 rCH 3 120 4 180
H 3 rCH 4 120 5 180
H 4 rCH 5 120 6 180

H 7 rCH 5 126 6 180
H 8 rCH 7 126 5 180
H 9 rNH 6 126 5 180

//parametros
rCC = 1.40
rCN = 1.40
rCH = 1.09
rNH = 1.08
