//methane
#BASIS   = basis/6-31G.bs
#CHARGE  = 0
#METHOD  = RHF
#CS      = 100000
#THREADS = 1


C
H  1  Rch
H  1  Rch  2  Tang
H  1  Rch  2  Tang 3 120
H  1  Rch  2  Tang 3 240

Tang = 109.47122
Rch = 1.10

