#BASIS = basis/6-31G.bs
#CHARGE = 0
#METHOD = RHF
#GUESS = CORE
#CS    = 10
#GDO   = 15
#THREADS = 4
#MAXSCF  = 1
#GPUMEM = 512
#ERIMEM = 2048

O        -11.78000       -0.39200       -0.00000
O         -5.41200        2.10800       -0.00000
O          5.41600       -2.10400       -0.00000
O         11.78400        0.39200       -0.00000
C        -15.27200        1.91200       -0.00000
C        -14.14800        0.86400       -0.00000
N        -12.86400        1.54400       -0.00000
C        -11.74000        0.84000       -0.00000
C        -10.40400        1.54800       -0.00000
C         -9.27600        0.49600       -0.00000
C         -7.91600        1.22000       -0.00000
C         -6.79200        0.16800       -0.00000
C         -5.45600        0.87600       -0.00000
N         -4.32800        0.17200       -0.00000
C         -3.04800        0.85200       -0.00000
C         -1.92000       -0.19600       -0.00000
C         -0.56000        0.52800       -0.00000
C          0.56400       -0.52000       -0.00000
C          1.92400        0.20000       -0.00000
C          3.05200       -0.84800       -0.00000
N          4.33200       -0.17200       -0.00000
C          5.46000       -0.87200       -0.00000
C          6.79200       -0.16800       -0.00000
C          7.92000       -1.21600       -0.00000
C          9.28000       -0.49200       -0.00000
C         10.40800       -1.54400       -0.00000
C         11.74000       -0.83600       -0.00000
N         12.86800       -1.54000       -0.00000
C         14.14800       -0.86000       -0.00000
C         15.27600       -1.90800       -0.00000
H        -16.24000        1.41200       -0.00000
H        -15.18800        2.53600        0.88800
H        -15.18800        2.53600       -0.88800
H        -14.22800        0.24000       -0.88800
H        -14.22800        0.24000        0.88800
H        -12.83200        2.56400       -0.00000
H        -10.32400        2.17200        0.88800
H        -10.32400        2.17200       -0.88800
H         -9.36000       -0.12800       -0.88800
H         -9.36000       -0.12800        0.88800
H         -7.83600        1.84400        0.88800
H         -7.83600        1.84400       -0.88800
H         -6.87200       -0.45600       -0.88800
H         -6.87200       -0.45600        0.88800
H         -4.36400       -0.84400       -0.00000
H         -2.96800        1.47600        0.88800
H         -2.96800        1.47600       -0.88800
H         -2.00400       -0.82000       -0.88800
H         -2.00400       -0.82000        0.88800
H         -0.48000        1.15200        0.88800
H         -0.48000        1.15200       -0.88800
H          0.48000       -1.14400       -0.88800
H          0.48000       -1.14400        0.88800
H          2.00400        0.82400        0.88800
H          2.00400        0.82400       -0.88800
H          2.96800       -1.47200       -0.88800
H          2.96800       -1.47200        0.88800
H          4.36800        0.84800       -0.00000
H          6.87600        0.45600        0.88800
H          6.87600        0.45600       -0.88800
H          7.83600       -1.84000       -0.88800
H          7.83600       -1.84000        0.88800
H          9.36000        0.12800        0.88800
H          9.36000        0.12800       -0.88800
H         10.32400       -2.16800       -0.88800
H         10.32400       -2.16800        0.88800
H         12.83200       -2.56000       -0.00000
H         14.23200       -0.23600        0.88800
H         14.23200       -0.23600       -0.88800
H         16.24000       -1.40400       -0.00000
H         15.19200       -2.53200        0.88800
H         15.19200       -2.53200       -0.88800

