#BASIS   = basis/6-31G.bs //roos2zb.bs
#CHARGE  = 0
#METHOD  = RHF
#THREADS = 16

C         -7.68568        1.53485        0.00000
C         -6.27166        2.18252        0.00000
C         -7.95365        0.14905        0.00000
C         -6.68110       -0.51511        0.00000
C         -4.98986        1.51993        0.00000
C         -5.26771        0.13195        0.00000
C         -3.48060        2.35841        0.00000
C         -2.08418        2.10925        0.00000
C         -0.57945        2.93741        0.00000
C          0.68716        2.24763        0.00000
C          2.08213        2.86457        0.00000
C          2.34219        4.24548        0.00000
C          1.09808        4.94262        0.00000
C         -0.29894        4.32561        0.00000
C          3.76593        5.00751        0.00000
H         -3.74107        3.42101        0.00000
H         -1.81665        1.04925        0.00000
H         -1.12137        5.03873        0.00000
H          0.68139        1.15610        0.00000
H          2.93067        2.17766        0.00000
H          1.13983        6.03653        0.00000
C          5.09574        4.64974        0.00000
C          6.45067        5.46578        0.00000
H          3.59917        6.08965        0.00000
H          5.33284        3.58280        0.00000
C          7.70800        4.80075        0.00000
C          8.97220        5.46295        0.00000
C          6.56456        6.87980        0.00000
C          9.02985        6.85740        0.00000
C          7.83148        7.54868        0.00000
H          7.75855        3.70920        0.00000
H          5.68485        7.50458        0.00000
H          7.87461        8.64456        0.00000
H          9.90585        4.90630        0.00000
H          9.99239        7.37327        0.00000
C         -9.42143       -0.67383        0.00000
C        -10.79107       -0.38366        0.00000
H         -9.20179       -1.74466        0.00000
C        -12.21629       -1.19843        0.00000
H        -11.05212        0.67448        0.00000
C        -12.44653       -2.59393        0.00000
C        -13.45112       -0.45794        0.00000
C        -13.76627       -3.19579        0.00000
C        -14.92768       -2.41853        0.00000
C        -14.76258       -1.05112        0.00000
H        -11.62019       -3.30116        0.00000
H        -13.44208        0.62555        0.00000
H        -15.66223       -0.42305        0.00000
H        -13.89626       -4.27790        0.00000
H        -15.92326       -2.87594        0.00000
H         -6.70777       -1.54676        0.00000
H         -8.49705        2.17258        0.00000
H         -6.24712        3.21423        0.00000
H         -4.45850       -0.50852        0.00000

