// terminated triangular graphene sheet

#BASIS   = basis/6-31G.bs
#DMLOAD  = sheet64.dm.faster
#DMSAVE  = sheet64.dm.faster.2
#THREADS = 64
#MAXSCF  = 100
#ERIMEM  = 16384
#BUFFMEM = 2048

C  0.000000 0.000000 0.000000
C  1.420000 0.000000 0.000000
C  -0.710000 1.229756 0.000000
C  -0.710000 -1.229756 0.000000
C  -2.840000 0.000000 0.000000
C  -4.260000 0.000000 0.000000
C  -2.130000 -1.229756 0.000000
C  -2.130000 1.229756 0.000000
C  1.420000 -2.459512 0.000000
C  0.000000 -2.459512 0.000000
C  2.130000 -3.689268 0.000000
C  2.130000 -1.229756 0.000000
C  1.420000 2.459512 0.000000
C  0.000000 2.459512 0.000000
C  2.130000 1.229756 0.000000
C  2.130000 3.689268 0.000000
C  5.680000 0.000000 0.000000
C  4.260000 0.000000 0.000000
C  6.390000 -1.229756 0.000000
C  6.390000 1.229756 0.000000
C  8.520000 0.000000 0.000000
C  9.940000 0.000000 0.000000
C  7.810000 1.229756 0.000000
C  7.810000 -1.229756 0.000000
C  4.260000 2.459512 0.000000
C  5.680000 2.459512 0.000000
C  3.550000 3.689268 0.000000
C  3.550000 1.229756 0.000000
C  4.260000 -2.459512 0.000000
C  5.680000 -2.459512 0.000000
C  3.550000 -1.229756 0.000000
C  3.550000 -3.689268 0.000000
C  -2.840000 4.919024 0.000000
C  -4.260000 4.919024 0.000000
C  -2.130000 3.689268 0.000000
C  -2.130000 6.148780 0.000000
C  0.000000 4.919024 0.000000
C  1.420000 4.919024 0.000000
C  -0.710000 6.148780 0.000000
C  -0.710000 3.689268 0.000000
C  -4.260000 7.378536 0.000000
C  -2.840000 7.378536 0.000000
C  -4.970000 8.608292 0.000000
C  -4.970000 6.148780 0.000000
C  -4.260000 2.459512 0.000000
C  -2.840000 2.459512 0.000000
C  -4.970000 3.689268 0.000000
C  -4.970000 1.229756 0.000000
C  -2.840000 -4.919024 0.000000
C  -4.260000 -4.919024 0.000000
C  -2.130000 -6.148780 0.000000
C  -2.130000 -3.689268 0.000000
C  0.000000 -4.919024 0.000000
C  1.420000 -4.919024 0.000000
C  -0.710000 -3.689268 0.000000
C  -0.710000 -6.148780 0.000000
C  -4.260000 -2.459512 0.000000
C  -2.840000 -2.459512 0.000000
C  -4.970000 -1.229756 0.000000
C  -4.970000 -3.689268 0.000000
C  -4.260000 -7.378536 0.000000
C  -2.840000 -7.378536 0.000000
C  -4.970000 -6.148780 0.000000
C  -4.970000 -8.608292 0.000000
H  10.490000 0.952628 0.000000
H  10.490000 -0.952628 0.000000
H  8.360000 2.182384 0.000000
H  8.360000 -2.182384 0.000000
H  6.230000 3.412140 0.000000
H  4.100000 4.641896 0.000000
H  6.230000 -3.412140 0.000000
H  4.100000 -4.641896 0.000000
H  1.970000 5.871652 0.000000
H  -0.160000 7.101408 0.000000
H  -2.290000 8.331164 0.000000
H  -4.420000 9.560920 0.000000
H  -6.070000 8.608292 0.000000
H  -6.070000 6.148780 0.000000
H  -6.070000 3.689268 0.000000
H  -6.070000 1.229756 0.000000
H  1.970000 -5.871652 0.000000
H  -0.160000 -7.101408 0.000000
H  -6.070000 -1.229756 0.000000
H  -6.070000 -3.689268 0.000000
H  -2.290000 -8.331164 0.000000
H  -6.070000 -6.148780 0.000000
H  -6.070000 -8.608292 0.000000
H  -4.420000 -9.560920 0.000000
