#BASIS = basis/STO-3G.bs
#CHARGE = 0
#MULTIPLICITY = 1
#METHOD = RHF
//H2O
O          0.000000000000    -0.075791838099     0.000000000000
H          0.866811766181     0.601435735706     0.000000000000
H         -0.866811766181     0.601435735706     0.000000000000
